basin-b rms_edge-3 0.02 45.4 1.3 0.098 0.669;
basin-b rms_edge-2 0.05559 14.3 0.7 0.149 0.472;
basin-b rms_edge-1 0.0739987 1.9 9.7 0 0.493;
basin-b triangle_edge 0.93 43.2 7.4 0.446 0 0;
basin-b square_edge 0.353 11.6 5.7 0.233 0 0;
basin-b phasor_edge 0.15 22 2.8 0.357 0 0;
basin-b osc_edge 0.468 12.7 1.4 0.358 0.796 0;
basin-b node 88.189 2.06378 120 440 0 22000;
basin-a rms_edge-3 0.03 24.6 7.6 0.036 0.274;
basin-a rms_edge-2 0.03 23.2 2.2 0.119 0.451;
basin-a rms_edge-1 0.1 36.5 2 0.351 0.463;
basin-a triangle_edge 0.914 14.9 6.3 0.841 0 0;
basin-a square_edge 0.736 24.3 1.6 0.633 0 0;
basin-a phasor_edge 0.891 7.9 7.3 0.68 0 0;
basin-a osc_edge 0.068 30.7 8.5 0.796 0.244 0.117;
basin-a node 88.9764 1.74882 45 440 0 20000;
